{
  "type": "service_account",
  "project_id": "secure-approach-424011-j8",
  "private_key_id": "3e7af454211008e389e6d47edb5557dcf16ac967",
  "private_key": "-----BEGIN PRIVATE KEY-----\nMIIEvQIBADANBgkqhkiG9w0BAQEFAASCBKcwggSjAgEAAoIBAQCv1a0RI7E9r8+x\nSGamgjE21xcYzaRL/oc4FxhVtDpVJhVoNcg1rNJCK1cQO5TCJEDRakFJewd65sT2\nKi97ze15m/hxUj6I8dbMnvdXgoDHRQ7jNYRZ+kpsqMyETjvgdu6fBG8nks0TwEcJ\nWLciAm4arD0sGtQFBl9mn9BzvhEVbGlrSUoQoikHMdGVfRssx+iQuNx/cxM6UEIl\nrFivWhkRM9tywDXGVLkOiVt8Hahc7Z70k3d7hTkcRduWdl3TTuX1Wq9AajFGHziw\n4+HwLcs2e5R0EMdGokTptJRpprfWRLYZVFwCCHEcxQoesRi+pl56Dbd7gHlUZLAQ\nxhBqHDi5AgMBAAECggEAIAnFvUX83UHLzOBljcjSmUyzMWqE2XDw5+wzW6hZaZrl\nEyYbiwYokHRvqm5EwmQTKGUdLLudRwxFzpmsqbkBoGMmL1W+Pbsc+Y8sf7Ywaz6e\nwhEGAtQLXAWcsC3GFLXu8CwBadtCgSsLdn1C7xA0yijgg4kG4TyCRQNxGqnC2J1p\nCYDdAElsX8zbq5j7k80Vblu/e8/ZYdEnrAEmVJx4uSa3Ra7QLNjY4Z7dix0sHeyc\nBbnQmGGPpRbVGl1PZAJjGpAaYMgmeQIZVnzN9iqubpKxUNP8WVIyRlEawTBg6erf\nNytrKyViipYE0ToONlsYv4UJHkZKHvat66a0QpYopQKBgQDkLF2k+U5qKNxjPx+G\ne6kpHT3Txx3E44zA6Bmf/aRCQsKRok10dZGXq6y5k8prT3xSWb650QS2yaQPG7IV\nqGKBIRs76vQt1cjjhaGhqlahcT3v1cVteR88HhETGzQZoieD9V4/Qg1hl0GGCO83\ncbgUR1C0KHoHN+Y139qMho1VDQKBgQDFR0iXK0mtRglWH68UgZlDQUSuP8oPZdxe\nPpRGH1K7wQdhJCsXCHYLTNFn7vdlsotzIgj8Bpu2tZo1+SGY6duL2mxKO9YVbBHJ\nfGZRFL/EOlhENFx8pkYAuqFHg2MA2zKt9jhLuEchYViWfWdLO/+ocZxaqaHrIWGC\n5LAniubfXQKBgQDO6GBeqmhuIfF/2gzXYanLC6Y2NdiL4yCPCam7CEF8iJdxgrEk\nCzzkQZwWiKtE1kZRUup+C8lvi7hGrwG1XAU/PWs50Vxtd/B8SYCBXjrCmTLmGn62\nP+CQHl+zaLa9C+szYTx+toH13jhfuBhcubWIRgcr54yIoSsT7ZN8XMMqvQKBgAJr\nkXRpT4oUpeCsmtVBkcPFdTY+ChiOQ1nUorUJhVZQU+rZKr4pmGkjFB6WS+qveg57\niGivHBHtwGqRF9xsYgkhMNroSQQSQ1WZdRfhjUi2/oY3rjrJP2qa34elEP3dso13\ny9EB/b1nGFMgTrgZkFVcr3JdSmM8EZotfAvAJHzxAoGACnSPlXBKY1+EkGpFBIxI\n+yf68Sbek8GBzJweD4+jyw2UZBB7MWPKlL7xS7UHtxGl2EvtYIkF0ysRlbNRLDYI\nckShDQkNrBaWAxdt/R6rlrGGuO/kLB9luTQMrqIkc9fn78CYxX8SS7xjuAX/IFPa\nc/A7byrFsFX2MNM02GqS9Ec=\n-----END PRIVATE KEY-----\n",
  "client_email": "ser-storage@secure-approach-424011-j8.iam.gserviceaccount.com",
  "client_id": "102978675885285697557",
  "auth_uri": "https://accounts.google.com/o/oauth2/auth",
  "token_uri": "https://oauth2.googleapis.com/token",
  "auth_provider_x509_cert_url": "https://www.googleapis.com/oauth2/v1/certs",
  "client_x509_cert_url": "https://www.googleapis.com/robot/v1/metadata/x509/ser-storage%40secure-approach-424011-j8.iam.gserviceaccount.com",
  "universe_domain": "googleapis.com"
}
